[{
        "stateCode": "AN",
        "activeFlag": true,
        "countryCode": "IND",
        "createdBy": null,
        "createdOn": "2018-07-24T04:53:35.332+0000",
        "stateName": "Andaman And Nicobar Islands",
        "updatedBy": null,
        "updatedOn": "2018-07-27T11:11:08.757+0000",
        "regionCode": "DEL1"
    },
    {
        "stateCode": "AP",
        "activeFlag": true,
        "countryCode": "IND",
        "createdBy": null,
        "createdOn": "2018-07-24T04:53:35.332+0000",
        "stateName": "Andhra Pradesh",
        "updatedBy": null,
        "updatedOn": null,
        "regionCode": "DEL_1"
    },
    {
        "stateCode": "AR",
        "activeFlag": true,
        "countryCode": "IND",
        "createdBy": null,
        "createdOn": "2018-07-24T11:06:20.255+0000",
        "stateName": "Arunachal Pradesh",
        "updatedBy": null,
        "updatedOn": "2018-07-24T11:06:20.255+0000",
        "regionCode": "MUM"
    },
    {
        "stateCode": "AS",
        "activeFlag": true,
        "countryCode": "IND",
        "createdBy": null,
        "createdOn": "2018-07-24T11:06:20.255+0000",
        "stateName": "Assam",
        "updatedBy": null,
        "updatedOn": "2018-07-27T11:08:18.184+0000",
        "regionCode": "GUW"
    },
    {
        "stateCode": "BI",
        "activeFlag": true,
        "countryCode": "IND",
        "createdBy": null,
        "createdOn": "2018-07-24T12:40:33.927+0000",
        "stateName": "Bihar",
        "updatedBy": null,
        "updatedOn": "2018-07-27T11:07:31.602+0000",
        "regionCode": "MUM"
    },
    {
        "stateCode": "CH",
        "activeFlag": true,
        "countryCode": "IND",
        "createdBy": null,
        "createdOn": "2018-07-24T11:06:20.255+0000",
        "stateName": "Chandigarh",
        "updatedBy": null,
        "updatedOn": "2018-07-26T06:54:14.918+0000",
        "regionCode": "KOL"
    },
    {
        "stateCode": "CG",
        "activeFlag": true,
        "countryCode": "IND",
        "createdBy": null,
        "createdOn": "2018-07-24T11:06:20.255+0000",
        "stateName": "Chhattisgarh",
        "updatedBy": null,
        "updatedOn": "2018-07-27T11:07:31.602+0000",
        "regionCode": "KOL"
    },
    {
        "stateCode": "DN",
        "activeFlag": true,
        "countryCode": "IND",
        "createdBy": null,
        "createdOn": "2018-07-24T11:06:20.255+0000",
        "stateName": "Dadra & Nagar Haveli",
        "updatedBy": null,
        "updatedOn": "2018-07-26T12:09:37.518+0000",
        "regionCode": "MUM_1"
    },
    {
        "stateCode": "DD",
        "activeFlag": true,
        "countryCode": "IND",
        "createdBy": null,
        "createdOn": "2018-07-24T04:53:03.370+0000",
        "stateName": "Daman & Diu",
        "updatedBy": null,
        "updatedOn": "2018-07-24T04:53:03.370+0000",
        "regionCode": "KOL"
    },
    {
        "stateCode": "DL",
        "activeFlag": true,
        "countryCode": "IND",
        "createdBy": null,
        "createdOn": "2018-07-24T04:32:32.480+0000",
        "stateName": "Delhi",
        "updatedBy": null,
        "updatedOn": "2018-07-24T04:32:32.480+0000",
        "regionCode": "KOL"
    },
    {
        "stateCode": "GO",
        "activeFlag": true,
        "countryCode": "IND",
        "createdBy": null,
        "createdOn": "2018-07-24T11:06:20.255+0000",
        "stateName": "Goa",
        "updatedBy": null,
        "updatedOn": "2018-07-27T11:07:31.602+0000",
        "regionCode": "MUM_1"
    },
    {
        "stateCode": "GJ",
        "activeFlag": true,
        "countryCode": "IND",
        "createdBy": null,
        "createdOn": "2018-07-24T11:06:20.255+0000",
        "stateName": "Gujarat",
        "updatedBy": null,
        "updatedOn": "2018-07-27T11:07:31.602+0000",
        "regionCode": "MUM_1"
    },
    {
        "stateCode": "HA",
        "activeFlag": null,
        "countryCode": "IND",
        "createdBy": null,
        "createdOn": "2018-07-24T04:33:05.522+0000",
        "stateName": "Haryana",
        "updatedBy": null,
        "updatedOn": "2018-07-24T04:33:05.522+0000",
        "regionCode": "KOL"
    },
    {
        "stateCode": "HI",
        "activeFlag": true,
        "countryCode": "IND",
        "createdBy": null,
        "createdOn": "2018-07-24T04:40:54.841+0000",
        "stateName": "Himachal Pradesh",
        "updatedBy": null,
        "updatedOn": "2018-07-24T04:40:54.841+0000",
        "regionCode": "KOL"
    },
    {
        "stateCode": "JK",
        "activeFlag": true,
        "countryCode": "IND",
        "createdBy": null,
        "createdOn": "2018-07-24T11:06:20.255+0000",
        "stateName": "Jammu & Kashmir",
        "updatedBy": null,
        "updatedOn": "2018-07-26T06:57:05.059+0000",
        "regionCode": "KOL"
    },
    {
        "stateCode": "JH",
        "activeFlag": true,
        "countryCode": "IND",
        "createdBy": null,
        "createdOn": "2018-07-24T11:06:20.255+0000",
        "stateName": "Jharkhand",
        "updatedBy": null,
        "updatedOn": "2018-07-27T11:07:31.602+0000",
        "regionCode": "KOL"
    },
    {
        "stateCode": "KA",
        "activeFlag": true,
        "countryCode": "IND",
        "createdBy": null,
        "createdOn": "2018-07-24T04:50:36.579+0000",
        "stateName": "Karnataka",
        "updatedBy": null,
        "updatedOn": "2018-07-24T04:50:36.579+0000",
        "regionCode": "CHE"
    },
    {
        "stateCode": "KE",
        "activeFlag": true,
        "countryCode": "IND",
        "createdBy": null,
        "createdOn": "2018-07-24T11:06:20.255+0000",
        "stateName": "Kerala",
        "updatedBy": null,
        "updatedOn": "2018-07-27T11:07:31.602+0000",
        "regionCode": "CHE"
    },
    {
        "activeFlag": true,
        "countryCode": "IND",
        "createdBy": null,
        "createdOn": "2019-11-06T07:26:30.259+0000",
        "foscosLiveFlag": true,
        "regionCode": "KOL",
        "stateCode": "LD",
        "stateName": "Ladakh",
        "updatedBy": null,
        "updatedOn": null
    },
    {
        "stateCode": "LK",
        "activeFlag": true,
        "countryCode": "IND",
        "createdBy": null,
        "createdOn": "2018-07-24T11:06:20.255+0000",
        "stateName": "Lakshadweep",
        "updatedBy": null,
        "updatedOn": "2018-07-27T11:07:31.602+0000",
        "regionCode": "CHE"
    },
    {
        "stateCode": "MP",
        "activeFlag": true,
        "countryCode": "IND",
        "createdBy": null,
        "createdOn": "2018-07-24T11:06:20.255+0000",
        "stateName": "Madhya Pradesh",
        "updatedBy": null,
        "updatedOn": "2018-07-25T07:14:33.560+0000",
        "regionCode": "DEL_1"
    },
    {
        "stateCode": "MH",
        "activeFlag": true,
        "countryCode": "IND",
        "createdBy": null,
        "createdOn": "2018-07-24T04:33:28.130+0000",
        "stateName": "Maharashtra",
        "updatedBy": null,
        "updatedOn": "2018-07-24T04:33:28.130+0000",
        "regionCode": "MUM"
    },
    {
        "stateCode": "MA",
        "activeFlag": true,
        "countryCode": "IND",
        "createdBy": null,
        "createdOn": "2018-07-24T11:06:20.255+0000",
        "stateName": "Manipur",
        "updatedBy": null,
        "updatedOn": "2018-07-27T11:07:31.602+0000",
        "regionCode": "GUW"
    },
    {
        "stateCode": "ME",
        "activeFlag": true,
        "countryCode": "IND",
        "createdBy": null,
        "createdOn": "2018-07-24T11:06:20.255+0000",
        "stateName": "Meghalaya",
        "updatedBy": null,
        "updatedOn": "2018-07-27T11:07:31.602+0000",
        "regionCode": "GUW"
    },
    {
        "stateCode": "MI",
        "activeFlag": true,
        "countryCode": "IND",
        "createdBy": null,
        "createdOn": "2018-07-24T11:06:20.255+0000",
        "stateName": "Mizoram",
        "updatedBy": null,
        "updatedOn": "2018-07-27T11:07:31.602+0000",
        "regionCode": "GUW"
    },
    {
        "stateCode": "NG",
        "activeFlag": true,
        "countryCode": "IND",
        "createdBy": null,
        "createdOn": "2018-07-24T11:06:20.255+0000",
        "stateName": "Nagaland",
        "updatedBy": null,
        "updatedOn": "2018-07-27T11:07:31.602+0000",
        "regionCode": "GUW"
    },
    {
        "stateCode": "OR",
        "activeFlag": true,
        "countryCode": "IND",
        "createdBy": null,
        "createdOn": "2018-07-24T04:39:23.796+0000",
        "stateName": "Orissa",
        "updatedBy": null,
        "updatedOn": "2018-07-24T04:39:23.796+0000",
        "regionCode": "KOL"
    },
    {
        "stateCode": "PY",
        "activeFlag": true,
        "countryCode": "IND",
        "createdBy": null,
        "createdOn": "2018-07-24T11:06:20.255+0000",
        "stateName": "Puducherry",
        "updatedBy": null,
        "updatedOn": "2018-07-27T11:07:31.602+0000",
        "regionCode": "CHE"
    },
    {
        "stateCode": "PJ",
        "activeFlag": true,
        "countryCode": "IND",
        "createdBy": null,
        "createdOn": "2018-07-24T11:06:20.255+0000",
        "stateName": "Punjab",
        "updatedBy": null,
        "updatedOn": "2018-07-26T06:58:34.939+0000",
        "regionCode": "KOL"
    },
    {
        "stateCode": "RJ",
        "activeFlag": true,
        "countryCode": "IND",
        "createdBy": null,
        "createdOn": "2018-07-24T04:47:42.918+0000",
        "stateName": "Rajasthan",
        "updatedBy": null,
        "updatedOn": "2018-07-27T11:18:29.015+0000",
        "regionCode": "DEL"
    },
    {
        "stateCode": "SI",
        "activeFlag": true,
        "countryCode": "IND",
        "createdBy": null,
        "createdOn": "2018-07-24T04:47:42.918+0000",
        "stateName": "Sikkim",
        "updatedBy": null,
        "updatedOn": "2018-07-24T04:47:42.918+0000",
        "regionCode": "DEL"
    },
    {
        "stateCode": "TN",
        "activeFlag": true,
        "countryCode": "IND",
        "createdBy": null,
        "createdOn": "2018-07-24T11:06:20.255+0000",
        "stateName": "Tamil Nadu",
        "updatedBy": null,
        "updatedOn": "2018-07-27T11:07:31.602+0000",
        "regionCode": "CHE"
    },
    {
        "stateCode": "TE",
        "activeFlag": true,
        "countryCode": "IND",
        "createdBy": null,
        "createdOn": "2018-07-24T11:06:20.255+0000",
        "stateName": "Telangana",
        "updatedBy": null,
        "updatedOn": "2018-07-26T07:01:32.373+0000",
        "regionCode": "CHE"
    },
    {
        "stateCode": "TR",
        "activeFlag": true,
        "countryCode": "IND",
        "createdBy": null,
        "createdOn": "2018-07-24T11:06:20.255+0000",
        "stateName": "Tripura",
        "updatedBy": null,
        "updatedOn": "2018-07-27T11:07:31.602+0000",
        "regionCode": "GUW"
    },
    {
        "stateCode": "UP",
        "activeFlag": true,
        "countryCode": "IND",
        "createdBy": null,
        "createdOn": "2018-07-24T04:44:46.475+0000",
        "stateName": "Uttar Pradesh",
        "updatedBy": null,
        "updatedOn": "2018-07-27T10:55:39.557+0000",
        "regionCode": "CHE"
    },
    {
        "stateCode": "UT",
        "activeFlag": true,
        "countryCode": "IND",
        "createdBy": null,
        "createdOn": "2018-07-24T11:06:20.255+0000",
        "stateName": "Uttarakhand",
        "updatedBy": null,
        "updatedOn": "2018-07-27T10:16:11.379+0000",
        "regionCode": "GUW"
    },
    {
        "stateCode": "WB",
        "activeFlag": true,
        "countryCode": "IND",
        "createdBy": null,
        "createdOn": "2018-07-24T11:06:20.255+0000",
        "stateName": "West Bengal",
        "updatedBy": null,
        "updatedOn": "2018-07-27T10:52:04.161+0000",
        "regionCode": "KOL"
    }
]